<?xml version="1.0" encoding="utf-8"?>
<!-- Generator: Adobe Illustrator 25.3.1, SVG Export Plug-In . SVG Version: 6.00 Build 0)  -->
<svg version="1.1" id="Layer_1" xmlns="http://www.w3.org/2000/svg" xmlns:xlink="http://www.w3.org/1999/xlink" x="0px" y="0px"
	 viewBox="0 0 119.3 184.6" style="enable-background:new 0 0 119.3 184.6;" xml:space="preserve">
<style type="text/css">
	.st0{fill:url(#SVGID_1_);}
	.st1{fill:url(#SVGID_2_);}
	.st2{fill:#209E91;}
</style>
<g>
	<linearGradient id="SVGID_1_" gradientUnits="userSpaceOnUse" x1="8.3939" y1="136.1715" x2="107.4656" y2="136.1715">
		<stop  offset="0" style="stop-color:#00ADEE"/>
		<stop  offset="1" style="stop-color:#D6DE23"/>
	</linearGradient>
	<polygon class="st0" points="110.3,128.9 110.3,128.9 110.3,128.9 76.5,128.9 76.5,128.9 85,143.5 85,143.5 118.8,143.5 
		118.8,143.5 	"/>
	<g>
		<linearGradient id="SVGID_2_" gradientUnits="userSpaceOnUse" x1="8.3939" y1="92.285" x2="107.4656" y2="92.285">
			<stop  offset="0" style="stop-color:#00ADEE"/>
			<stop  offset="1" style="stop-color:#D6DE23"/>
		</linearGradient>
		<polygon class="st1" points="59.6,41.1 59.6,41.1 0.5,143.5 0.5,143.5 68.1,143.5 59.6,128.9 59.6,128.9 25.8,128.9 59.6,70.3 
			76.5,99.6 76.5,99.6 76.5,99.6 76.5,99.6 59.6,99.6 59.6,99.6 68.1,114.2 68.1,114.2 101.9,114.2 101.9,114.2 		"/>
		<polygon class="st2" points="51.2,114.3 51.2,114.2 51.2,114.2 		"/>
	</g>
</g>
</svg>
